                             CHARACTER GRAPHICS:
                               archetype-stock
                                 Tigg_stock
                                  faestock
                                quazzz_stock
                                WolfcatStock
                                   Dakann
                                 LinzStock

                                   MUSIC:
                                 Nagual Art
                                BLUnderwood
                              Alvaro M. Rocha

                                 THANKS TO:
                Brian "getter77" Jeffears, Dave Moore, Mingos,
                 Paul "Krice" Pekkarinen, Christian Schneider

                       Very special thanks to Wiebke.

