^^^^^^^^^^^^^^^^^^^^^^^^^^^^^^^^^^^^^^^^^^^^^^^^^^^^^^^^^^^^
^^L^^LLLPPL^^^^PPLLL^^^^^LPLL^^^^^^LLLLL^^^^^^^^LLLLD^^^^^^^
^PL,LPLLLLPPLLPLLLL^^LL,,,,,,,,,,,,,,LLPPL^^,,,,,,,,,,+...^^
^PLLL,,,LLLLLLL,,,,,,,,LLLPLLDDLLLDDD,,,,,,,LLLLLLLLLL^^.5.^
^^LL,LLL,,,,,,,LLLLL,LLLLLLLLDDDDD^^^^^^^^^LLPL^^^^^^^^^^^.^
^^L,LLLLLLL,LLPLLLLL,LLLPLLLDLD^^^^==^^^^^^^^^^^==^^^=^^^^^^
^##+##LLLL,LPLLLLL^^,LLLLLLLDLLD^^=======^^======^^=====^^^^
^#.<.#LLL,LLLLLLLL^^,LLLLLPLLDL^^==^^=====^^^=======JLLA==^^
^#####LL,LLPLLLPP^^^,PLLLLLLLDLL^^^^============JLLDLPLLA==^
^^^^^,,,LLLLLLPP^^P,PPPPL^^LLDL^^=====#####D,,PP,D#####DDDA^
^^^^,LLLLLLLL^^^^P,PPP^^^^LLLD,,^^====#.4.#D,,,,,D#.;.#DDA=^
^^^,LLLLLPPLLL^^.,.PP^^LLLLLLLL,^^^===##.##D,,U,,D##.##DDDA^
^^^^LLLLLL^^^^^^.7.^^^^LLLLLLLL,A======#+#D,PL,,,,D#+#DDDD,^
^^^,^^^LPLLLLL^^^.^^LLLLLLLLLLL,,A====##.##D,L,PLD##.##DD,,^
^^^^,,^^^^^LP^^L^^^^LLLLLLLLLL,A====JD#..(#########...#D,,L^
^L^^^,,,,^^^^^^LLL^^^^LLLLLLL,A====JDL#(.(#...X...#...#D,LL^
^LPL^^^^^,,,,,,,,,,LL^^^^,,,,LA====JPP#(.(#.......#.].#D,,L^
^PPLPL^^^^^^PLLLLLL,,,,,,^^^,LLA===JPP#...####+####..9#D,,,^
^^LLL^^LPLLLL^^^^LLLLL^^^^^,LPPLA=JPPL#][.(#.....#....#D,LL^
^L^^^^^^LP^^^^LLLL^^^^^^^^,PLLLLLA==PP###+##.....##+###D,LL^
^^^^LL^^^^^^^^LLLLLLL^^^^^,LPLLA===J,DD#......|......#D,LLL^
^^^=JLLL^^^^PL^^^^LLLLL^^^,A=====J,,,,L#.............#D,LLP^
^^LA======JLLLLLLLLA========J,,,,,,,,P,#.............#L,,LL^
^^LLLLLLLA==========^^^^^^,,,,,,,,,,,,,#######+#######,,LLL^
^^^LLLLPLLLLLLLLLL^^^^,,,,,,,,PP,,,,,,,,,,,,,,,,,,,P,,,,,,,^
^^^^PL^^PPL^^LL^^^^L,,,,LL,,PP,,,,##+##,,,,,,A=J,,,,,,,,,,,^
^^LPL^^^^,LLLL^^^^LL,,,,,,,,,,,,,,#...#,,,,,A=L=J,,,,######^
^^^^^^..+,^^^^LLLL,,,##+#####+##,,#.8.#P,,,A=PPL=J,,,+..6..^
^^^^....^^^^LLLLLLL,,#..2.+...3#,,#...#P,,,,A=L=J,,,,#.....^
^^^.1.^^^^LLLLLL,L,,,###########,,#...#,,,,,,A=J,,,,L######^
^^^^^^^LLLLLLLLLLLL,,,,,,,^^^^^^^^#####^^^^,,,,,^^^^^^L,PP,^
^^^^^^^^^^^^^^^^^^^^^^^^^^^^^^^^^^^^^^^^^^^^^^^^^^^^^^^^^^^^
^^^^^^^^^^^^^^^^^^^^^^^^^^^^^^^^^^^^^^^^^^^^^^^^^^^^^^^^^^^^
^^^^^^^^^^^^^^^^^^^^^^^^^^^^^^^^^^^^^^^^^^^^^^^^^^^^^^^^^^^^

